{
  "implemented": true,
  "name": "Typhlosion",
  "nationalPokedexNumber": 157,
  "primaryType": "fire",
  "abilities": [
    "blaze",
    "h:flashfire"
  ],
  "baseStats": {
    "hp": 78,
    "attack": 84,
    "defence": 78,
    "special_attack": 109,
    "special_defence": 85,
    "speed": 100
  },
  "catchRate": 45,
  "maleRatio": 0.875,
  "shoulderMountable": false,
  "forms": [
    {
      "name": "Hisui",
      "primaryType": "fire",
      "secondaryType": "ghost",
      "abilities": [
        "blaze",
        "h:frisk"
      ],
      "baseStats": {
        "hp": 73,
        "attack": 84,
        "defence": 78,
        "special_attack": 119,
        "special_defence": 85,
        "speed": 95
      },
      "catchRate": 45,
      "maleRatio": 0.875,
      "baseExperienceYield": 240,
      "baseFriendship": 70,
      "evYield": {
        "hp": 0,
        "attack": 0,
        "defence": 0,
        "special_attack": 3,
        "special_defence": 0,
        "speed": 0
      },
      "experienceGroup": "medium_slow",
      "eggCycles": 20,
      "eggGroups": [
        "field"
      ],
      "moves": [
        "1:doubleedge",
        "1:ember",
        "1:eruption",
        "1:gyroball",
        "1:leer",
        "1:smokescreen",
        "1:tackle",
        "13:quickattack",
        "20:flamewheel",
        "24:defensecurl",
        "31:swift",
        "35:flamecharge",
        "43:lavaplume",
        "48:flamethrower",
        "56:inferno",
        "61:rollout",
        "74:overheat",
        "tm:aerialace",
        "tm:blastburn",
        "tm:bodyslam",
        "tm:brickbreak",
        "tm:bulldoze",
        "tm:calmmind",
        "tm:confuseray",
        "tm:dig",
        "tm:earthquake",
        "tm:endure",
        "tm:facade",
        "tm:fireblast",
        "tm:firefang",
        "tm:firepledge",
        "tm:firepunch",
        "tm:firespin",
        "tm:flamecharge",
        "tm:flamethrower",
        "tm:flareblitz",
        "tm:focusblast",
        "tm:gigaimpact",
        "tm:heatwave",
        "tm:hex",
        "tm:hyperbeam",
        "tm:ironhead",
        "tm:lowkick",
        "tm:nightshade",
        "tm:overheat",
        "tm:playrough",
        "tm:protect",
        "tm:rest",
        "tm:reversal",
        "tm:rockslide",
        "tm:shadowball",
        "tm:shadowclaw",
        "tm:sleeptalk",
        "tm:solarbeam",
        "tm:stompingtantrum",
        "tm:substitute",
        "tm:sunnyday",
        "tm:swift",
        "tm:takedown",
        "tm:terablast",
        "tm:thunderpunch",
        "tm:wildcharge",
        "tm:willowisp",
        "tm:zenheadbutt"
      ],
      "labels": [
        "gen8",
        "hisui_regional"
      ],
      "aspects": [
        "hisuian"
      ],
      "height": 16,
      "weight": 698,
      "preEvolution": "quilava",
      "evolutions": [],
      "cannotDynamax": false,
      "battleOnly": false
    }
  ],
  "baseExperienceYield": 240,
  "experienceGroup": "medium_slow",
  "eggCycles": 20,
  "eggGroups": [
    "field"
  ],
  "behaviour": {
    "resting": {
      "canSleep": true,
      "willSleepOnBed": false,
      "depth": "normal",
      "light": "0-4"
    },
    "moving" : {
      "walk": {
        "walkSpeed": 0.15
      }
    }
  },
  "moves": [
    "1:doubleedge",
    "1:ember",
    "1:eruption",
    "1:gyroball",
    "1:leer",
    "1:smokescreen",
    "1:tackle",
    "13:quickattack",
    "20:flamewheel",
    "24:defensecurl",
    "31:swift",
    "35:flamecharge",
    "43:lavaplume",
    "48:flamethrower",
    "56:inferno",
    "61:rollout",
    "74:burnup",
    "74:overheat",
    "tm:aerialace",
    "tm:attract",
    "tm:blastburn",
    "tm:bodyslam",
    "tm:brickbreak",
    "tm:bulldoze",
    "tm:captivate",
    "tm:confide",
    "tm:cut",
    "tm:dig",
    "tm:doubleteam",
    "tm:earthquake",
    "tm:endure",
    "tm:facade",
    "tm:fireblast",
    "tm:firefang",
    "tm:firepledge",
    "tm:firepunch",
    "tm:firespin",
    "tm:flamecharge",
    "tm:flamethrower",
    "tm:flareblitz",
    "tm:fling",
    "tm:focusblast",
    "tm:focuspunch",
    "tm:frustration",
    "tm:gigaimpact",
    "tm:gyroball",
    "tm:heatwave",
    "tm:helpinghand",
    "tm:hiddenpower",
    "tm:hyperbeam",
    "tm:incinerate",
    "tm:ironhead",
    "tm:lowkick",
    "tm:naturalgift",
    "tm:naturepower",
    "tm:overheat",
    "tm:playrough",
    "tm:poweruppunch",
    "tm:protect",
    "tm:rest",
    "tm:return",
    "tm:reversal",
    "tm:roar",
    "tm:rockclimb",
    "tm:rockslide",
    "tm:rocksmash",
    "tm:rocktomb",
    "tm:round",
    "tm:secretpower",
    "tm:shadowball",
    "tm:shadowclaw",
    "tm:sleeptalk",
    "tm:solarbeam",
    "tm:stompingtantrum",
    "tm:strength",
    "tm:substitute",
    "tm:sunnyday",
    "tm:swagger",
    "tm:swift",
    "tm:takedown",
    "tm:terablast",
    "tm:thunderpunch",
    "tm:toxic",
    "tm:wildcharge",
    "tm:willowisp",
    "tm:workup",
    "tm:zenheadbutt",
    "tutor:attract",
    "tutor:blastburn",
    "tutor:bodyslam",
    "tutor:counter",
    "tutor:covet",
    "tutor:curse",
    "tutor:cut",
    "tutor:defensecurl",
    "tutor:detect",
    "tutor:dig",
    "tutor:doubleedge",
    "tutor:doubleteam",
    "tutor:dynamicpunch",
    "tutor:earthquake",
    "tutor:ember",
    "tutor:endure",
    "tutor:fireblast",
    "tutor:firepledge",
    "tutor:firepunch",
    "tutor:flamecharge",
    "tutor:flamethrower",
    "tutor:flamewheel",
    "tutor:focuspunch",
    "tutor:frustration",
    "tutor:furycutter",
    "tutor:headbutt",
    "tutor:heatwave",
    "tutor:hiddenpower",
    "tutor:hyperbeam",
    "tutor:irontail",
    "tutor:laserfocus",
    "tutor:leer",
    "tutor:lowkick",
    "tutor:megakick",
    "tutor:megapunch",
    "tutor:mimic",
    "tutor:mudslap",
    "tutor:overheat",
    "tutor:protect",
    "tutor:quickattack",
    "tutor:rest",
    "tutor:return",
    "tutor:roar",
    "tutor:rockslide",
    "tutor:rocksmash",
    "tutor:rollout",
    "tutor:seismictoss",
    "tutor:sleeptalk",
    "tutor:smokescreen",
    "tutor:snore",
    "tutor:stompingtantrum",
    "tutor:strength",
    "tutor:substitute",
    "tutor:sunnyday",
    "tutor:swagger",
    "tutor:swift",
    "tutor:tackle",
    "tutor:throatchop",
    "tutor:thunderpunch",
    "tutor:toxic"
  ],
  "labels": [
    "gen2",
    "johto_regional"
  ],
  "pokedex": [
    "cobblemon.species.typhlosion.desc"
  ],
  "preEvolution": "quilava",
  "evolutions": [],
  "baseScale": 0.65,
  "hitbox": {
    "width": 1.35,
    "height": 2.65,
    "fixed": false
  },
  "baseFriendship": 70,
  "evYield": {
    "hp": 0,
    "attack": 0,
    "defence": 0,
    "special_attack": 3,
    "special_defence": 0,
    "speed": 0
  },
  "height": 17,
  "weight": 795,
  "aspects": [],
  "cannotDynamax": false
}