{
  "implemented": true,
  "name": "Spewpa",
  "nationalPokedexNumber": 665,
  "primaryType": "bug",
  "abilities": [
    "shedskin",
    "h:friendguard"
  ],
  "baseStats": {
    "hp": 45,
    "attack": 22,
    "defence": 60,
    "special_attack": 27,
    "special_defence": 30,
    "speed": 29
  },
  "catchRate": 120,
  "maleRatio": 0.5,
  "shoulderMountable": false,
  "baseExperienceYield": 75,
  "experienceGroup": "medium_fast",
  "eggCycles": 15,
  "eggGroups": [
    "bug"
  ],
  "behaviour": {
    "moving": {
      "walk": {
        "canWalk": false
      },
      "swim": {
        "canSwimInWater": false
      },
      "canLook": false
    }
  },
  "moves": [
    "1:harden",
    "1:protect",
    "tm:irondefense",
    "tm:pounce",
    "tm:protect",
    "tm:strugglebug",
    "tm:terablast",
    "tutor:bugbite",
    "tutor:electroweb",
    "tutor:irondefense"
  ],
  "labels": [
    "gen6"
  ],
  "pokedex": [
    "cobblemon.species.spewpa.desc"
  ],
  "preEvolution": "scatterbug",
  "evolutions": [
    {
      "id": "spewpa_vivillon_archipelago",
      "variant": "level_up",
      "result": "vivillon vivillon_wings=archipelago",
      "consumeHeldItem": false,
      "learnableMoves": [
        "gust"
      ],
      "requirements": [
        {
          "variant": "level",
          "minLevel": 12
        },
        {
          "variant": "biome",
          "biomeCondition": "#cobblemon:is_mushroom"
        }
      ]
    },
    {
      "id": "spewpa_vivillon_continental",
      "variant": "level_up",
      "result": "vivillon vivillon_wings=continental",
      "consumeHeldItem": false,
      "learnableMoves": [
        "gust"
      ],
      "requirements": [
        {
          "variant": "level",
          "minLevel": 12
        },
        {
          "variant": "biome",
          "biomeCondition": "#cobblemon:is_plains"
        }
      ]
    },
    {
      "id": "spewpa_vivillon_elegant",
      "variant": "level_up",
      "result": "vivillon vivillon_wings=elegant",
      "consumeHeldItem": false,
      "learnableMoves": [
        "gust"
      ],
      "requirements": [
        {
          "variant": "level",
          "minLevel": 12
        },
        {
          "variant": "biome",
          "biomeCondition": "#cobblemon:is_spooky"
        },
        {
          "variant": "biome",
          "biomeCondition": "#cobblemon:is_magical"
        }
      ]
    },
    {
      "id": "spewpa_vivillon_fancy",
      "variant": "level_up",
      "result": "vivillon vivillon_wings=fancy",
      "consumeHeldItem": false,
      "learnableMoves": [
        "gust"
      ],
      "requirements": [
        {
          "variant": "level",
          "minLevel": 12
        },
        {
          "variant": "biome",
          "biomeCondition": "minecraft:cherry_grove"
        }
      ]
    },
    {
      "id": "spewpa_vivillon_garden",
      "variant": "level_up",
      "result": "vivillon vivillon_wings=garden",
      "consumeHeldItem": false,
      "learnableMoves": [
        "gust"
      ],
      "requirements": [
        {
          "variant": "level",
          "minLevel": 12
        },
        {
          "variant": "biome",
          "biomeCondition": "#cobblemon:is_forest"
        }
      ]
    },
    {
      "id": "spewpa_vivillon_high_plains",
      "variant": "level_up",
      "result": "vivillon vivillon_wings=high_plains",
      "consumeHeldItem": false,
      "learnableMoves": [
        "gust"
      ],
      "requirements": [
        {
          "variant": "level",
          "minLevel": 12
        },
        {
          "variant": "biome",
          "biomeCondition": "#cobblemon:is_badlands"
        }
      ]
    },
    {
      "id": "spewpa_vivillon_icy_snow",
      "variant": "level_up",
      "result": "vivillon vivillon_wings=icy_snow",
      "consumeHeldItem": false,
      "learnableMoves": [
        "gust"
      ],
      "requirements": [
        {
          "variant": "level",
          "minLevel": 12
        },
        {
          "variant": "biome",
          "biomeCondition": "#cobblemon:is_taiga"
        }
      ]
    },
    {
      "id": "spewpa_vivillon_jungle",
      "variant": "level_up",
      "result": "vivillon vivillon_wings=jungle",
      "consumeHeldItem": false,
      "learnableMoves": [
        "gust"
      ],
      "requirements": [
        {
          "variant": "level",
          "minLevel": 12
        },
        {
          "variant": "biome",
          "biomeCondition": "#cobblemon:is_jungle"
        }
      ]
    },
    {
      "id": "spewpa_vivillon_marine",
      "variant": "level_up",
      "result": "vivillon vivillon_wings=marine",
      "consumeHeldItem": false,
      "learnableMoves": [
        "gust"
      ],
      "requirements": [
        {
          "variant": "level",
          "minLevel": 12
        },
        {
          "variant": "biome",
          "biomeCondition": "#cobblemon:is_ocean"
        }
      ]
    },
    {
      "id": "spewpa_vivillon_meadow",
      "variant": "level_up",
      "result": "vivillon vivillon_wings=meadow",
      "consumeHeldItem": false,
      "learnableMoves": [
        "gust"
      ],
      "requirements": [
        {
          "variant": "level",
          "minLevel": 12
        },
        {
          "variant": "biome",
          "biomeCondition": "#cobblemon:is_floral"
        }
      ]
    },
    {
      "id": "spewpa_vivillon_modern",
      "variant": "level_up",
      "result": "vivillon vivillon_wings=modern",
      "consumeHeldItem": false,
      "learnableMoves": [
        "gust"
      ],
      "requirements": [
        {
          "variant": "level",
          "minLevel": 12
        },
        {
          "variant": "biome",
          "biomeCondition": "minecraft:is_void"
        }
      ]
    },
    {
      "id": "spewpa_vivillon_monsoon",
      "variant": "level_up",
      "result": "vivillon vivillon_wings=monsoon",
      "consumeHeldItem": false,
      "learnableMoves": [
        "gust"
      ],
      "requirements": [
        {
          "variant": "level",
          "minLevel": 12
        },
        {
          "variant": "biome",
          "biomeCondition": "#cobblemon:is_mountain"
        },
        {
          "variant": "biome",
          "biomeCondition": "#cobblemon:is_peak"
        }
      ]
    },
    {
      "id": "spewpa_vivillon_ocean",
      "variant": "level_up",
      "result": "vivillon vivillon_wings=ocean",
      "consumeHeldItem": false,
      "learnableMoves": [
        "gust"
      ],
      "requirements": [
        {
          "variant": "level",
          "minLevel": 12
        },
        {
          "variant": "biome",
          "biomeCondition": "#cobblemon:is_coast"
        },
        {
          "variant": "biome",
          "biomeCondition": "#cobblemon:is_warm_ocean"
        }
      ]
    },
    {
      "id": "spewpa_vivillon_poke_ball",
      "variant": "level_up",
      "result": "vivillon vivillon_wings=poke-ball",
      "consumeHeldItem": false,
      "learnableMoves": [
        "gust"
      ],
      "requirements": [
        {
          "variant": "level",
          "minLevel": 12
        },
        {
          "variant": "biome",
          "biomeCondition": "#cobblemon:is_void"
        }
      ]
    },
    {
      "id": "spewpa_vivillon_polar",
      "variant": "level_up",
      "result": "vivillon vivillon_wings=polar",
      "consumeHeldItem": false,
      "learnableMoves": [
        "gust"
      ],
      "requirements": [
        {
          "variant": "level",
          "minLevel": 12
        },
        {
          "variant": "biome",
          "biomeCondition": "#cobblemon:is_frozen_ocean"
        }
      ]
    },
    {
      "id": "spewpa_vivillon_river",
      "variant": "level_up",
      "result": "vivillon vivillon_wings=river",
      "consumeHeldItem": false,
      "learnableMoves": [
        "gust"
      ],
      "requirements": [
        {
          "variant": "level",
          "minLevel": 12
        },
        {
          "variant": "biome",
          "biomeCondition": "#cobblemon:is_river"
        },
        {
          "variant": "biome",
          "biomeCondition": "#cobblemon:is_swamp"
        }
      ]
    },
    {
      "id": "spewpa_vivillon_sandstorm",
      "variant": "level_up",
      "result": "vivillon vivillon_wings=sandstorm",
      "consumeHeldItem": false,
      "learnableMoves": [
        "gust"
      ],
      "requirements": [
        {
          "variant": "level",
          "minLevel": 12
        },
        {
          "variant": "biome",
          "biomeCondition": "#cobblemon:is_desert"
        }
      ]
    },
    {
      "id": "spewpa_vivillon_savanna",
      "variant": "level_up",
      "result": "vivillon vivillon_wings=savanna",
      "consumeHeldItem": false,
      "learnableMoves": [
        "gust"
      ],
      "requirements": [
        {
          "variant": "level",
          "minLevel": 12
        },
        {
          "variant": "biome",
          "biomeCondition": "#cobblemon:is_savanna"
        }
      ]
    },
    {
      "id": "spewpa_vivillon_sun",
      "variant": "level_up",
      "result": "vivillon vivillon_wings=sun",
      "consumeHeldItem": false,
      "learnableMoves": [
        "gust"
      ],
      "requirements": [
        {
          "variant": "level",
          "minLevel": 12
        },
        {
          "variant": "biome",
          "biomeCondition": "#cobblemon:is_sky"
        },
        {
          "variant": "biome",
          "biomeCondition": "#cobblemon:is_volcano"
        },
        {
          "variant": "biome",
          "biomeCondition": "minecraft:sunflower_plains"
        }
      ]
    },
    {
      "id": "spewpa_vivillon_tundra",
      "variant": "level_up",
      "result": "vivillon vivillon_wings=tundra",
      "consumeHeldItem": false,
      "learnableMoves": [
        "gust"
      ],
      "requirements": [
        {
          "variant": "level",
          "minLevel": 12
        },
        {
          "variant": "biome",
          "biomeCondition": "#cobblemon:is_tundra"
        },
        {
          "variant": "biome",
          "biomeCondition": "#cobblemon:is_snowy_forest"
        },
        {
          "variant": "biome",
          "biomeCondition": "#cobblemon:is_glacial"
        }
      ]
    },
    {
      "id": "spewpa_vivillon_blazing",
      "variant": "level_up",
      "result": "vivillon vivillon_wings=blazing",
      "consumeHeldItem": false,
      "learnableMoves": [
        "gust"
      ],
      "requirements": [
        {
          "variant": "level",
          "minLevel": 12
        },
        {
          "variant": "world",
          "identifier": "minecraft:the_nether"
        }
      ]
    },
    {
      "id": "spewpa_vivillon_ender",
      "variant": "level_up",
      "result": "vivillon vivillon_wings=ender",
      "consumeHeldItem": false,
      "learnableMoves": [
        "gust"
      ],
      "requirements": [
        {
          "variant": "level",
          "minLevel": 12
        },
        {
          "variant": "world",
          "identifier": "minecraft:the_end"
        }
      ]
    }
  ],
  "baseScale": 0.8,
  "hitbox": {
    "width": 0.5,
    "height": 0.7,
    "fixed": false
  },
  "baseFriendship": 70,
  "evYield": {
    "hp": 0,
    "attack": 0,
    "defence": 2,
    "special_attack": 0,
    "special_defence": 0,
    "speed": 0
  },
  "height": 3,
  "weight": 84,
  "aspects": [],
  "cannotDynamax": false
}