{
  "implemented": true,
  "name": "Grafaiai",
  "nationalPokedexNumber": 945,
  "primaryType": "poison",
  "secondaryType": "normal",
  "abilities": [
    "unburden",
    "poisontouch",
    "h:prankster"
  ],
  "baseStats": {
    "hp": 63,
    "attack": 95,
    "defence": 65,
    "special_attack": 80,
    "special_defence": 72,
    "speed": 110
  },
  "catchRate": 90,
  "maleRatio": 0.5,
  "baseExperienceYield": 170,
  "baseFriendship": 50,
  "evYield": {
    "hp": 0,
    "attack": 0,
    "defence": 0,
    "special_attack": 0,
    "special_defence": 0,
    "speed": 2
  },
  "experienceGroup": "medium_slow",
  "eggCycles": 20,
  "eggGroups": [
    "field"
  ],
  "behaviour": {
    "resting": {
      "canSleep": true,
      "willSleepOnBed": false,
      "depth": "normal",
      "light": "0-4"
    }
  },
  "moves": [
    "1:leer",
    "1:scratch",
    "5:acidspray",
    "8:furyswipes",
    "11:switcheroo",
    "14:poisonfang",
    "18:flatter",
    "21:slash",
    "25:uturn",
    "33:poisonjab",
    "37:taunt",
    "40:substitute",
    "45:knockoff",
    "51:gunkshot",
    "tm:acidspray",
    "tm:acrobatics",
    "tm:batonpass",
    "tm:dig",
    "tm:encore",
    "tm:endure",
    "tm:facade",
    "tm:fling",
    "tm:foulplay",
    "tm:gigaimpact",
    "tm:gunkshot",
    "tm:helpinghand",
    "tm:lowkick",
    "tm:lowsweep",
    "tm:metronome",
    "tm:mudshot",
    "tm:mudslap",
    "tm:nastyplot",
    "tm:poisonjab",
    "tm:poisontail",
    "tm:pounce",
    "tm:protect",
    "tm:raindance",
    "tm:rest",
    "tm:scaryface",
    "tm:shadowclaw",
    "tm:sleeptalk",
    "tm:sludgebomb",
    "tm:substitute",
    "tm:sunnyday",
    "tm:swordsdance",
    "tm:takedown",
    "tm:taunt",
    "tm:terablast",
    "tm:thief",
    "tm:trailblaze",
    "tm:uturn",
    "tm:venoshock",
    "tm:xscissor"
  ],
  "labels": [
    "gen9"
  ],
  "aspects": [],
  "height": 7,
  "weight": 272,
  "preEvolution": "shroodle",
  "evolutions": [],
  "baseScale": 0.6,
  "hitbox": {
    "width": 0.8,
    "height": 1.1,
    "fixed": false
  },
  "cannotDynamax": false,
  "pokedex": [
    "cobblemon.species.grafaiai.desc"
  ]
}