{
  "implemented": true,
  "name": "Combee",
  "nationalPokedexNumber": 415,
  "primaryType": "bug",
  "secondaryType": "flying",
  "abilities": [
    "honeygather",
    "h:hustle"
  ],
  "baseStats": {
    "hp": 30,
    "attack": 30,
    "defence": 42,
    "special_attack": 30,
    "special_defence": 42,
    "speed": 70
  },
  "catchRate": 120,
  "maleRatio": 0.875,
  "shoulderMountable": false,
  "baseExperienceYield": 49,
  "experienceGroup": "medium_slow",
  "eggCycles": 15,
  "eggGroups": [
    "bug"
  ],
  "behaviour": {
    "resting": {
      "canSleep": true,
      "depth": "normal",
      "light": "0-4"
    },
    "moving": {
      "fly": {
        "canFly": true,
        "flySpeedHorizontal": 0.6
      }
    }
  },
  "moves": [
    "1:bugbite",
    "1:gust",
    "1:strugglebug",
    "1:sweetscent",
    "13:bugbite",
    "29:bugbuzz",
    "tm:bugbuzz",
    "tm:sleeptalk",
    "tm:snore",
    "tm:strugglebug",
    "tm:terablast",
    "tutor:aircutter",
    "tutor:bugbite",
    "tutor:dualwingbeat",
    "tutor:endeavor",
    "tutor:gust",
    "tutor:mudslap",
    "tutor:ominouswind",
    "tutor:snore",
    "tutor:stringshot",
    "tutor:swift",
    "tutor:tailwind"
  ],
  "labels": [
    "gen4"
  ],
  "pokedex": [
    "cobblemon.species.combee.desc"
  ],
  "evolutions": [
    {
      "id": "combee_vespiquen",
      "variant": "level_up",
      "result": "vespiquen",
      "consumeHeldItem": false,
      "learnableMoves": [
        "slash"
      ],
      "requirements": [
        {
          "variant": "level",
          "minLevel": 21
        },
        {
          "variant": "properties",
          "target": "gender=female"
        }
      ]
    }
  ],
  "baseScale": 0.6,
  "hitbox": {
    "width": 0.6,
    "height": 1,
    "fixed": false
  },
  "baseFriendship": 50,
  "evYield": {
    "hp": 0,
    "attack": 0,
    "defence": 0,
    "special_attack": 0,
    "special_defence": 0,
    "speed": 1
  },
  "height": 3,
  "weight": 55,
  "aspects": [],
  "cannotDynamax": false
}