{
  "name": "Oranguru",
  "nationalPokedexNumber": 765,
  "primaryType": "normal",
  "secondaryType": "psychic",
  "abilities": [
    "innerfocus",
    "telepathy",
    "h:symbiosis"
  ],
  "baseStats": {
    "hp": 90,
    "attack": 60,
    "defence": 80,
    "special_attack": 90,
    "special_defence": 110,
    "speed": 60
  },
  "catchRate": 45,
  "maleRatio": 0.5,
  "shoulderMountable": false,
  "baseExperienceYield": 172,
  "experienceGroup": "slow",
  "eggCycles": 20,
  "eggGroups": [
    "field"
  ],
  "moves": [
    "1:confusion",
    "1:taunt",
    "5:afteryou",
    "10:calmmind",
    "15:storedpower",
    "20:psychup",
    "22:feintattack",
    "25:quash",
    "30:nastyplot",
    "35:zenheadbutt",
    "40:trickroom",
    "45:psychic",
    "50:instruct",
    "55:foulplay",
    "60:futuresight",
    "egg:dreameater",
    "egg:extrasensory",
    "egg:lastresort",
    "egg:psychicterrain",
    "egg:wonderroom",
    "egg:yawn",
    "tm:allyswitch",
    "tm:attract",
    "tm:bodyslam",
    "tm:brickbreak",
    "tm:brutalswing",
    "tm:bulldoze",
    "tm:calmmind",
    "tm:chargebeam",
    "tm:chillingwater",
    "tm:confide",
    "tm:doubleteam",
    "tm:dreameater",
    "tm:earthquake",
    "tm:embargo",
    "tm:encore",
    "tm:endure",
    "tm:energyball",
    "tm:facade",
    "tm:fling",
    "tm:focusblast",
    "tm:foulplay",
    "tm:frustration",
    "tm:futuresight",
    "tm:gigaimpact",
    "tm:hiddenpower",
    "tm:hyperbeam",
    "tm:hypervoice",
    "tm:imprison",
    "tm:lightscreen",
    "tm:magicroom",
    "tm:megakick",
    "tm:megapunch",
    "tm:nastyplot",
    "tm:naturepower",
    "tm:payback",
    "tm:protect",
    "tm:psybeam",
    "tm:psychic",
    "tm:psychicterrain",
    "tm:psychup",
    "tm:psyshock",
    "tm:quash",
    "tm:raindance",
    "tm:reflect",
    "tm:rest",
    "tm:return",
    "tm:rockslide",
    "tm:round",
    "tm:safeguard",
    "tm:scaryface",
    "tm:shadowball",
    "tm:skillswap",
    "tm:sleeptalk",
    "tm:snore",
    "tm:storedpower",
    "tm:substitute",
    "tm:sunnyday",
    "tm:swagger",
    "tm:swift",
    "tm:takedown",
    "tm:taunt",
    "tm:terablast",
    "tm:thunder",
    "tm:thunderbolt",
    "tm:toxic",
    "tm:trailblaze",
    "tm:trick",
    "tm:trickroom",
    "tm:wonderroom",
    "tm:workup",
    "tm:zenheadbutt",
    "tutor:afteryou",
    "tutor:allyswitch",
    "tutor:block",
    "tutor:covet",
    "tutor:expandingforce",
    "tutor:foulplay",
    "tutor:gravity",
    "tutor:instruct",
    "tutor:knockoff",
    "tutor:magiccoat",
    "tutor:magicroom",
    "tutor:painsplit",
    "tutor:psychic",
    "tutor:psychicterrain",
    "tutor:snatch",
    "tutor:snore",
    "tutor:spite",
    "tutor:telekinesis",
    "tutor:terrainpulse",
    "tutor:trick",
    "tutor:trickroom",
    "tutor:wonderroom",
    "tutor:zenheadbutt"
  ],
  "labels": [
    "gen7"
  ],
  "pokedex": [
    "cobblemon.species.oranguru.desc"
  ],
  "evolutions": [],
  "baseScale": 1,
  "hitbox": {
    "width": 1,
    "height": 1,
    "fixed": false
  },
  "baseFriendship": 50,
  "evYield": {
    "hp": 0,
    "attack": 0,
    "defence": 0,
    "special_attack": 0,
    "special_defence": 2,
    "speed": 0
  },
  "height": 15,
  "weight": 760,
  "aspects": [],
  "cannotDynamax": false
}