{
  "implemented": true,
  "name": "Corviknight",
  "nationalPokedexNumber": 823,
  "primaryType": "flying",
  "secondaryType": "steel",
  "abilities": [
    "pressure",
    "unnerve",
    "h:mirrorarmor"
  ],
  "baseStats": {
    "hp": 98,
    "attack": 87,
    "defence": 105,
    "special_attack": 53,
    "special_defence": 85,
    "speed": 67
  },
  "catchRate": 45,
  "maleRatio": 0.5,
  "shoulderMountable": false,
  "forms": [
    {
      "name": "Gmax",
      "primaryType": "flying",
      "secondaryType": "steel",
      "abilities": [
        "pressure",
        "unnerve",
        "h:mirrorarmor"
      ],
      "baseStats": {
        "hp": 98,
        "attack": 87,
        "defence": 105,
        "special_attack": 53,
        "special_defence": 85,
        "speed": 67
      },
      "catchRate": 45,
      "maleRatio": 0.5,
      "baseExperienceYield": 248,
      "baseFriendship": 50,
      "evYield": {
        "hp": 0,
        "attack": 0,
        "defence": 3,
        "special_attack": 0,
        "special_defence": 0,
        "speed": 0
      },
      "experienceGroup": "medium_slow",
      "eggCycles": 15,
      "eggGroups": [
        "flying"
      ],
      "labels": [
        "gen8",
        "gmax"
      ],
      "aspects": [
        "gmax"
      ],
      "height": 140,
      "weight": 0,
      "evolutions": [],
      "cannotDynamax": false,
      "battleOnly": false
    }
  ],
  "baseExperienceYield": 248,
  "experienceGroup": "medium_slow",
  "eggCycles": 15,
  "eggGroups": [
    "flying"
  ],
  "behaviour": {
    "moving": {
      "fly": {
        "canFly": true
      }
    }
  },
  "moves": [
    "1:honeclaws",
    "1:irondefense",
    "1:leer",
    "1:metalsound",
    "1:peck",
    "1:powertrip",
    "1:screech",
    "12:furyattack",
    "16:pluck",
    "22:taunt",
    "28:scaryface",
    "34:drillpeck",
    "42:swagger",
    "50:bravebird",
    "tm:aerialace",
    "tm:agility",
    "tm:aircutter",
    "tm:airslash",
    "tm:assurance",
    "tm:attract",
    "tm:bodypress",
    "tm:bodyslam",
    "tm:bravebird",
    "tm:bulkup",
    "tm:endure",
    "tm:facade",
    "tm:faketears",
    "tm:flashcannon",
    "tm:fly",
    "tm:focusenergy",
    "tm:gigaimpact",
    "tm:heavyslam",
    "tm:hurricane",
    "tm:hyperbeam",
    "tm:irondefense",
    "tm:ironhead",
    "tm:lightscreen",
    "tm:metalclaw",
    "tm:nastyplot",
    "tm:payback",
    "tm:protect",
    "tm:raindance",
    "tm:reflect",
    "tm:rest",
    "tm:retaliate",
    "tm:revenge",
    "tm:reversal",
    "tm:round",
    "tm:scaryface",
    "tm:screech",
    "tm:sleeptalk",
    "tm:snore",
    "tm:steelbeam",
    "tm:steelwing",
    "tm:substitute",
    "tm:sunnyday",
    "tm:swift",
    "tm:tailwind",
    "tm:takedown",
    "tm:taunt",
    "tm:terablast",
    "tm:thief",
    "tm:uturn",
    "tm:workup",
    "tutor:dualwingbeat",
    "tutor:steelbeam"
  ],
  "labels": [
    "gen8"
  ],
  "pokedex": [
    "cobblemon.species.corviknight.desc"
  ],
  "preEvolution": "corvisquire",
  "evolutions": [],
  "baseScale": 1.1,
  "hitbox": {
    "width": 2.0,
    "height": 4.4,
    "fixed": false
  },
  "baseFriendship": 50,
  "evYield": {
    "hp": 0,
    "attack": 0,
    "defence": 3,
    "special_attack": 0,
    "special_defence": 0,
    "speed": 0
  },
  "height": 22,
  "weight": 750,
  "aspects": [],
  "cannotDynamax": false
}