{
    "enabled": "true",
    "neededInstalledMods": [],
    "neededUninstalledMods": [],
    "spawns": [
        {
            "id": "surskit-1",
            "pokemon": "surskit",
            "presets": [
                "water_surface",
                "freshwater"
            ],
            "type": "pokemon",
            "context": "surface",
            "bucket": "common",
            "level": "2-27",
            "weight": 1.8,
            "condition": {
                "canSeeSky": true,
                "timeRange": "night",
                "isRaining": false
            }
        }
    ]
}