{
    "enabled": true,
    "neededInstalledMods": [],
    "neededUninstalledMods": [],
    "spawns": [
        {
            "id": "mimikyu-1",
            "pokemon": "mimikyu",
            "presets": [
                "natural"
            ],
            "type": "pokemon",
            "context": "grounded",
            "bucket": "rare",
            "level": "23-48",
            "weight": 10.0,
            "condition": {
                "biomes": [
                    "#cobblemon:is_spooky"
                ]
            }
        },
		{
            "id": "mimikyu-2",
            "pokemon": "mimikyu",
            "presets": [
                "woodland_mansion"
            ],
            "type": "pokemon",
            "context": "grounded",
            "bucket": "uncommon",
            "level": "23-48",
            "weight": 10.0,
            "condition": {
				"canSeeSky": false,
                "biomes": [
                    "#cobblemon:is_overworld"
                ]
            }
        }
    ]
}