{
  "replace": false,
  "values": [
    "#cobblemon:is_jungle",
    "minecraft:dark_forest",
    "minecraft:mangrove_swamp",
    {
      "id": "#c:vegetation_dense",
      "required": false 
    },
    {
      "id": "#forge:is_dense",
      "required": false 
    },
    {
      "id": "#forge:is_dense/overworld",
      "required": false 
    }
  ]
}
