{
  "implemented": true,
  "name": "Pidgeotto",
  "nationalPokedexNumber": 17,
  "primaryType": "normal",
  "secondaryType": "flying",
  "abilities": [
    "keeneye",
    "tangledfeet",
    "h:bigpecks"
  ],
  "baseStats": {
    "hp": 63,
    "attack": 60,
    "defence": 55,
    "special_attack": 50,
    "special_defence": 50,
    "speed": 71
  },
  "catchRate": 120,
  "maleRatio": 0.5,
  "shoulderMountable": false,
  "baseExperienceYield": 122,
  "experienceGroup": "medium_slow",
  "eggCycles": 15,
  "eggGroups": [
    "flying"
  ],
  "behaviour": {
    "moving": {
      "fly": {
        "canFly": true
      }
    },
    "resting": {
      "canSleep": true,
      "willSleepOnBed": false,
      "depth": "normal",
      "light": "0-4"
    }
  },
  "drops": {
    "amount": "3",
    "entries": [
      {
        "item": "minecraft:feather",
        "quantityRange": "1-2",
        "percentage": 66
      },
      {
        "item": "minecraft:chicken"
      },
      {
        "item": "cobblemon:sharp_beak",
        "percentage": 2.5
      }
    ]
  },
  "moves": [
    "1:gust",
    "1:sandattack",
    "1:tackle",
    "13:quickattack",
    "17:whirlwind",
    "22:twister",
    "27:featherdance",
    "32:agility",
    "37:wingattack",
    "42:roost",
    "47:tailwind",
    "52:mirrormove",
    "57:airslash",
    "62:hurricane",
    "tm:aerialace",
    "tm:attract",
    "tm:captivate",
    "tm:confide",
    "tm:defog",
    "tm:doubleteam",
    "tm:endure",
    "tm:facade",
    "tm:fly",
    "tm:frustration",
    "tm:hiddenpower",
    "tm:naturalgift",
    "tm:pluck",
    "tm:protect",
    "tm:raindance",
    "tm:rest",
    "tm:return",
    "tm:roost",
    "tm:round",
    "tm:secretpower",
    "tm:sleeptalk",
    "tm:steelwing",
    "tm:substitute",
    "tm:sunnyday",
    "tm:swagger",
    "tm:thief",
    "tm:toxic",
    "tm:uturn",
    "tm:workup",
    "tutor:agility",
    "tutor:aircutter",
    "tutor:airslash",
    "tutor:attract",
    "tutor:bide",
    "tutor:curse",
    "tutor:defog",
    "tutor:detect",
    "tutor:doubleedge",
    "tutor:doubleteam",
    "tutor:endure",
    "tutor:facade",
    "tutor:featherdance",
    "tutor:fly",
    "tutor:frustration",
    "tutor:gust",
    "tutor:headbutt",
    "tutor:heatwave",
    "tutor:hiddenpower",
    "tutor:mimic",
    "tutor:mirrormove",
    "tutor:mudslap",
    "tutor:ominouswind",
    "tutor:protect",
    "tutor:quickattack",
    "tutor:rage",
    "tutor:razorwind",
    "tutor:reflect",
    "tutor:refresh",
    "tutor:rest",
    "tutor:return",
    "tutor:roost",
    "tutor:sandattack",
    "tutor:skyattack",
    "tutor:sleeptalk",
    "tutor:snore",
    "tutor:steelwing",
    "tutor:substitute",
    "tutor:sunnyday",
    "tutor:swagger",
    "tutor:swift",
    "tutor:tackle",
    "tutor:tailwind",
    "tutor:takedown",
    "tutor:thief",
    "tutor:toxic",
    "tutor:twister",
    "tutor:uproar",
    "tutor:uturn",
    "tutor:whirlwind",
    "tutor:wingattack"
  ],
  "labels": [
    "gen1"
  ],
  "pokedex": [
    "cobblemon.species.pidgeotto.desc"
  ],
  "preEvolution": "pidgey",
  "evolutions": [
    {
      "id": "pidgeotto_pidgeot",
      "variant": "level_up",
      "result": "pidgeot",
      "consumeHeldItem": false,
      "learnableMoves": [],
      "requirements": [
        {
          "variant": "level",
          "minLevel": 36
        }
      ]
    }
  ],
  "baseScale": 1.1,
  "hitbox": {
    "width": 0.6,
    "height": 1,
    "fixed": false
  },
  "baseFriendship": 70,
  "evYield": {
    "hp": 0,
    "attack": 0,
    "defence": 0,
    "special_attack": 0,
    "special_defence": 0,
    "speed": 2
  },
  "height": 11,
  "weight": 300,
  "aspects": [],
  "cannotDynamax": false
}