{
  "implemented": true,
  "name": "Camerupt",
  "nationalPokedexNumber": 323,
  "primaryType": "fire",
  "secondaryType": "ground",
  "abilities": [
    "magmaarmor",
    "solidrock",
    "h:angerpoint"
  ],
  "baseStats": {
    "hp": 70,
    "attack": 100,
    "defence": 70,
    "special_attack": 105,
    "special_defence": 75,
    "speed": 40
  },
  "catchRate": 150,
  "maleRatio": 0.5,
  "shoulderMountable": false,
  "forms": [
    {
      "name": "Mega",
      "primaryType": "fire",
      "secondaryType": "ground",
      "abilities": [
        "sheerforce"
      ],
      "baseStats": {
        "hp": 70,
        "attack": 120,
        "defence": 100,
        "special_attack": 145,
        "special_defence": 105,
        "speed": 20
      },
      "catchRate": 150,
      "maleRatio": 0.5,
      "baseExperienceYield": 161,
      "baseFriendship": 70,
      "evYield": {
        "hp": 0,
        "attack": 1,
        "defence": 0,
        "special_attack": 1,
        "special_defence": 0,
        "speed": 0
      },
      "experienceGroup": "medium_fast",
      "eggCycles": 20,
      "eggGroups": [
        "field"
      ],
      "labels": [
        "gen6",
        "mega"
      ],
      "aspects": [
        "mega"
      ],
      "height": 25,
      "weight": 3205,
      "evolutions": [],
      "cannotDynamax": false,
      "battleOnly": true
    }
  ],
  "baseExperienceYield": 161,
  "experienceGroup": "medium_fast",
  "eggCycles": 20,
  "eggGroups": [
    "field"
  ],
  "moves": [
    "1:ember",
    "1:eruption",
    "1:fissure",
    "1:focusenergy",
    "1:growl",
    "1:rockslide",
    "1:tackle",
    "12:bulldoze",
    "12:magnitude",
    "15:flameburst",
    "15:incinerate",
    "19:amnesia",
    "22:lavaplume",
    "26:earthpower",
    "29:curse",
    "31:takedown",
    "39:yawn",
    "46:earthquake",
    "tm:amnesia",
    "tm:attract",
    "tm:bodypress",
    "tm:bodyslam",
    "tm:bulldoze",
    "tm:captivate",
    "tm:charm",
    "tm:confide",
    "tm:dig",
    "tm:doubleteam",
    "tm:earthpower",
    "tm:earthquake",
    "tm:echoedvoice",
    "tm:endure",
    "tm:explosion",
    "tm:facade",
    "tm:fireblast",
    "tm:firespin",
    "tm:flamecharge",
    "tm:flamethrower",
    "tm:flareblitz",
    "tm:flashcannon",
    "tm:frustration",
    "tm:gigaimpact",
    "tm:heatwave",
    "tm:heavyslam",
    "tm:helpinghand",
    "tm:hiddenpower",
    "tm:hyperbeam",
    "tm:incinerate",
    "tm:ironhead",
    "tm:mudshot",
    "tm:mudslap",
    "tm:naturalgift",
    "tm:naturepower",
    "tm:overheat",
    "tm:protect",
    "tm:raindance",
    "tm:rest",
    "tm:return",
    "tm:roar",
    "tm:rockpolish",
    "tm:rockslide",
    "tm:rocksmash",
    "tm:rocktomb",
    "tm:round",
    "tm:sandstorm",
    "tm:scaryface",
    "tm:secretpower",
    "tm:sleeptalk",
    "tm:solarbeam",
    "tm:stealthrock",
    "tm:stompingtantrum",
    "tm:stoneedge",
    "tm:strength",
    "tm:substitute",
    "tm:sunnyday",
    "tm:swagger",
    "tm:takedown",
    "tm:terablast",
    "tm:toxic",
    "tm:trailblaze",
    "tm:willowisp",
    "tm:zenheadbutt",
    "tutor:afteryou",
    "tutor:bodyslam",
    "tutor:curse",
    "tutor:defensecurl",
    "tutor:doubleedge",
    "tutor:earthpower",
    "tutor:endure",
    "tutor:explosion",
    "tutor:headbutt",
    "tutor:heatwave",
    "tutor:ironhead",
    "tutor:mimic",
    "tutor:mudslap",
    "tutor:rockslide",
    "tutor:rollout",
    "tutor:selfdestruct",
    "tutor:sleeptalk",
    "tutor:snore",
    "tutor:stealthrock",
    "tutor:stompingtantrum",
    "tutor:substitute",
    "tutor:swagger",
    "tutor:takedown",
    "tutor:yawn"
  ],
  "labels": [
    "gen3"
  ],
  "pokedex": [
    "cobblemon.species.camerupt.desc"
  ],
  "preEvolution": "numel",
  "evolutions": [],
  "baseScale": 1.2,
  "hitbox": {
    "width": 2,
    "height": 1.5,
    "fixed": false
  },
  "baseFriendship": 70,
  "evYield": {
    "hp": 0,
    "attack": 1,
    "defence": 0,
    "special_attack": 1,
    "special_defence": 0,
    "speed": 0
  },
  "height": 19,
  "weight": 2200,
  "aspects": [],
  "cannotDynamax": false
}