{
  "implemented": true,
  "name": "Dusclops",
  "nationalPokedexNumber": 356,
  "primaryType": "ghost",
  "abilities": [
    "pressure",
    "h:frisk"
  ],
  "baseStats": {
    "hp": 40,
    "attack": 70,
    "defence": 130,
    "special_attack": 60,
    "special_defence": 130,
    "speed": 25
  },
  "catchRate": 90,
  "maleRatio": 0.5,
  "shoulderMountable": false,
  "baseExperienceYield": 159,
  "experienceGroup": "fast",
  "eggCycles": 25,
  "eggGroups": [
    "amorphous"
  ],
  "behaviour": {
    "moving": {
      "fly": {
        "canFly": true
      }
    },
    "resting": {
      "canSleep": true,
      "willSleepOnBed": false,
      "depth": "normal",
      "light": "0-4"
    }
  },
  "moves": [
    "1:astonish",
    "1:bind",
    "1:disable",
    "1:firepunch",
    "1:gravity",
    "1:icepunch",
    "1:leer",
    "1:shadowpunch",
    "1:shadowsneak",
    "1:thunderpunch",
    "12:confuseray",
    "14:foresight",
    "16:nightshade",
    "20:payback",
    "22:pursuit",
    "24:willowisp",
    "28:meanlook",
    "32:hex",
    "36:curse",
    "42:shadowball",
    "48:futuresight",
    "tm:allyswitch",
    "tm:attract",
    "tm:blizzard",
    "tm:bodyslam",
    "tm:brickbreak",
    "tm:bulldoze",
    "tm:calmmind",
    "tm:captivate",
    "tm:chargebeam",
    "tm:confide",
    "tm:darkpulse",
    "tm:doubleteam",
    "tm:dreameater",
    "tm:earthquake",
    "tm:embargo",
    "tm:endure",
    "tm:facade",
    "tm:firepunch",
    "tm:flash",
    "tm:fling",
    "tm:focuspunch",
    "tm:frustration",
    "tm:futuresight",
    "tm:gigaimpact",
    "tm:helpinghand",
    "tm:hex",
    "tm:hiddenpower",
    "tm:hyperbeam",
    "tm:icebeam",
    "tm:icepunch",
    "tm:icywind",
    "tm:imprison",
    "tm:infestation",
    "tm:megakick",
    "tm:megapunch",
    "tm:metronome",
    "tm:naturalgift",
    "tm:payback",
    "tm:poweruppunch",
    "tm:protect",
    "tm:psychic",
    "tm:psychup",
    "tm:raindance",
    "tm:rest",
    "tm:return",
    "tm:revenge",
    "tm:rockslide",
    "tm:rocksmash",
    "tm:rocktomb",
    "tm:round",
    "tm:secretpower",
    "tm:shadowball",
    "tm:skillswap",
    "tm:sleeptalk",
    "tm:snatch",
    "tm:snore",
    "tm:strength",
    "tm:substitute",
    "tm:sunnyday",
    "tm:swagger",
    "tm:taunt",
    "tm:telekinesis",
    "tm:thief",
    "tm:thunderpunch",
    "tm:torment",
    "tm:toxic",
    "tm:trick",
    "tm:trickroom",
    "tm:willowisp",
    "tm:wonderroom",
    "tutor:allyswitch",
    "tutor:bind",
    "tutor:bodyslam",
    "tutor:counter",
    "tutor:darkpulse",
    "tutor:doubleedge",
    "tutor:dreameater",
    "tutor:dynamicpunch",
    "tutor:endure",
    "tutor:firepunch",
    "tutor:focuspunch",
    "tutor:gravity",
    "tutor:headbutt",
    "tutor:icepunch",
    "tutor:icywind",
    "tutor:megakick",
    "tutor:megapunch",
    "tutor:metronome",
    "tutor:mimic",
    "tutor:mudslap",
    "tutor:nightmare",
    "tutor:ominouswind",
    "tutor:painsplit",
    "tutor:poltergeist",
    "tutor:psychup",
    "tutor:rockslide",
    "tutor:seismictoss",
    "tutor:skillswap",
    "tutor:skittersmack",
    "tutor:sleeptalk",
    "tutor:snatch",
    "tutor:snore",
    "tutor:spite",
    "tutor:substitute",
    "tutor:suckerpunch",
    "tutor:swagger",
    "tutor:telekinesis",
    "tutor:thunderpunch",
    "tutor:trick",
    "tutor:wonderroom"
  ],
  "labels": [
    "gen3"
  ],
  "pokedex": [
    "cobblemon.species.dusclops.desc"
  ],
  "preEvolution": "duskull",
  "evolutions": [
    {
      "id": "dusclops_dusknoir",
      "variant": "trade",
      "result": "dusknoir",
      "consumeHeldItem": true,
      "learnableMoves": [],
      "requirements": [
        {
          "variant": "held_item",
          "itemCondition": "cobblemon:reaper_cloth"
        }
      ]
    }
  ],
  "baseScale": 0.85,
  "hitbox": {
    "width": 1.2,
    "height": 2.0,
    "fixed": false
  },
  "baseFriendship": 35,
  "evYield": {
    "hp": 0,
    "attack": 0,
    "defence": 1,
    "special_attack": 0,
    "special_defence": 1,
    "speed": 0
  },
  "height": 16,
  "weight": 306,
  "aspects": [],
  "cannotDynamax": false
}